ARIMA with Examples
…
econdata %>% dplyr::select(YEAR, GDP) %>% mutate( logGDP = log(GDP)) -> gdpdata

gdpdata

## # A tsibble: 88 x 3 [1Q]
##       YEAR   GDP logGDP
##      <qtr> <dbl>  <dbl>
##  1 1970 Q1 2873.   7.96
##  2 1970 Q2 2860.   7.96
##  3 1970 Q3 2897.   7.97
##  4 1970 Q4 2874.   7.96
##  5 1971 Q1 2943.   7.99
##  6 1971 Q2 2947.   7.99
##  7 1971 Q3 2966    7.99
##  8 1971 Q4 2981.   8.00
##  9 1972 Q1 3037.   8.02
## 10 1972 Q2 3090.   8.04
## #  with 78 more rows
…
# Calculate log of GDP
gdp_data_ts %>% mutate( logGDP = log(GDP)) -> gdpdata

gdpdata

## # A tsibble: 206 x 3 [1Q]
##    Quarter   GDP logGDP
##      <qtr> <dbl>  <dbl>
##  1 1970 Q1  4.94   1.60
##  2 1970 Q2  4.95   1.60
##  3 1970 Q3  4.99   1.61
##  4 1970 Q4  4.94   1.60
##  5 1971 Q1  5.07   1.62
##  6 1971 Q2  5.1    1.63
##  7 1971 Q3  5.14   1.64
##  8 1971 Q4  5.15   1.64
##  9 1972 Q1  5.25   1.66
## 10 1972 Q2  5.37   1.68
## #  with 196 more rows
…
