DATA 624 Assignment 5
…
Exercise 8.6

Forecast the Chinese GDP from the global_economy data set using an ETS model. Experiment with the various options in the ETS() function to see how much the forecasts change with damped trend, or with a Box-Cox transformation. Try to develop an intuition of what each is doing to the forecasts.

[Hint: use a relatively large value of h when forecasting, so you can clearly see the differences between the various options when plotting the forecasts.]

chn_gdp <- global_economy %>%
  filter(Country == 'China') %>%
  mutate(GDP = GDP/1e9) %>%
  select(c(Country, Code, Year, GDP))

(chn_gdp)

## # A tsibble: 58 x 4 [1Y]
## # Key:       Country [1]
##    Country Code   Year   GDP
##    <fct>   <fct> <dbl> <dbl>
##  1 China   CHN    1960  59.7
##  2 China   CHN    1961  50.1
##  3 China   CHN    1962  47.2
##  4 China   CHN    1963  50.7
##  5 China   CHN    1964  59.7
##  6 China   CHN    1965  70.4
##  7 China   CHN    1966  76.7
##  8 China   CHN    1967  72.9
##  9 China   CHN    1968  70.8
## 10 China   CHN    1969  79.7
## #  with 48 more rows
…
