DATA 624 Project 1 v1
…
summary(atm1_data_ts)

##       DATE           ATM                 Cash       
##  Min.   :39934   Length:365         Min.   :  1.00  
##  1st Qu.:40025   Class :character   1st Qu.: 73.00  
##  Median :40116   Mode  :character   Median : 91.00  
##  Mean   :40116                      Mean   : 83.89  
##  3rd Qu.:40207                      3rd Qu.:108.00  
##  Max.   :40298                      Max.   :180.00  
##                                     NA's   :3

atm1_data_ts

## # A tsibble: 365 x 3 [1]
## # Key:       ATM [1]
##     DATE ATM    Cash
##    <dbl> <chr> <dbl>
##  1 39934 ATM1     96
##  2 39935 ATM1     82
##  3 39936 ATM1     85
##  4 39937 ATM1     90
##  5 39938 ATM1     99
##  6 39939 ATM1     88
##  7 39940 ATM1      8
##  8 39941 ATM1    104
##  9 39942 ATM1     87
## 10 39943 ATM1     93
## #  with 355 more rows
…
